chatGPT
…
1.2 워드 → 표추출

docxtractr 패키지를 설치하고 docx_extract_tbl() 함수로 PDF 파일에 담긴 표를 추출한다.

코드
library(docxtractr)

gpt_docx <- docxtractr::read_docx("data/2303.08774.docx")

tbl_01 <- docx_extract_tbl(gpt_docx, 3) %>% 
    janitor::clean_names()
tbl_01
#> # A tibble: 34 × 4
#>    exam                                           gpt_4          gpt_4…¹ gpt_3_5
#>    <chr>                                          <chr>          <chr>   <chr>  
#>  1 Uniform Bar Exam (MBE+MEE+MPT)                 298 / 400 (~9… 298 / … 213 / …
#>  2 LSAT                                           163 (~88th)    161 (~… 149 (~…
#>  3 SAT Evidence-Based Reading & Writing           710 / 800 (~9… 710 / … 670 / …
#>  4 SAT Math                                       700 / 800 (~8… 690 / … 590 / …
#>  5 Graduate Record Examination (GRE) Quantitative 163 / 170 (~8… 157 / … 147 / …
#>  6 Graduate Record Examination (GRE) Verbal       169 / 170 (~9… 165 / … 154 / …
#>  7 Graduate Record Examination (GRE) Writing      4 / 6 (~54th)  4 / 6 … 4 / 6 …
#>  8 USABO Semifinal Exam 2020                      87 / 150 (99t… 87 / 1… 43 / 1…
#>  9 USNCO Local Section Exam 2022                  36 / 60        38 / 60 24 / 60
#> 10 Medical Knowledge Self-Assessment Program      75 %           75 %    53 %   
#> # … with 24 more rows, and abbreviated variable name ¹​gpt_4_no_vision
…
