chatGPT
…
inaugural_eng_embedding <- 
  read_rds("data/inaugural_eng_embedding.rds") %>% 
  mutate(구분 = "영문 취임사") %>% 
  rename(취임사 = 영문취임사)

api_embedding <- 
  bind_rows(embedding_tbl, translated_embedding) %>% 
  bind_rows(inaugural_eng_embedding)

api_embedding %>% 
  select(구분, 대통령, 취임사, 임베딩) 
#> # A tibble: 31 × 4
#>    구분        대통령 취임사                                              임베딩
#>    <chr>       <chr>  <chr>                                               <list>
#>  1 국문 취임사 이승만 나의 사랑하는 동포 여러분. 내가 오늘 또 한번 우리 … <list>
#>  2 국문 취임사 윤보선 제2공화국의 초대대통령으로 영예의 당선을 얻은 어제… <list>
#>  3 국문 취임사 박정희 친애하는 5천만 동포 여러분!  그리고 내외 귀빈 여러… <list>
#>  4 국문 취임사 최규하 친애하는 국내외 동포 여러분!  그리고 이 자리를 빛…  <list>
#>  5 국문 취임사 전두환 친애하는 국내외 동포 여러분!  그리고 이 자리를 빛…  <list>
#>  6 국문 취임사 노태우 친애하는 6천만 국내외 동포 여러분. 우리 헌정발전을… <list>
#>  7 국문 취임사 김영삼 친애하는 7천만 국내외 동포 여러분,  노태우 대통령…  <list>
#>  8 국문 취임사 김대중 존경하고 사랑하는 국민 여러분!  오늘 저는 대한민국… <list>
#>  9 국문 취임사 노무현 존경하는 국민 여러분.  오늘 저는 대한민국의 제16대… <list>
#> 10 국문 취임사 이명박 존경하는 국민 여러분!    700만 해외동포 여러분!   … <NULL>
#> # … with 21 more rows
…
