chatGPT
…
2 데이터 가져오기

펭귄 데이터를 다운로드 받아 로컬 컴퓨터 data 폴더에 저장시킨다.

코드
library(tidyverse)

fs::dir_create("data")
download.file(url = "https://raw.githubusercontent.com/dataprofessor/data/master/penguins_cleaned.csv", destfile = "data/penguins_cleaned.csv")

penguin_df <- readr::read_csv("data/penguins_cleaned.csv")

penguin_df
#> # A tibble: 333 × 7
#>    species island    bill_length_mm bill_depth_mm flipper_length…¹ body_…² sex  
#>    <chr>   <chr>              <dbl>         <dbl>            <dbl>   <dbl> <chr>
#>  1 Adelie  Torgersen           39.1          18.7              181    3750 male 
#>  2 Adelie  Torgersen           39.5          17.4              186    3800 fema…
#>  3 Adelie  Torgersen           40.3          18                195    3250 fema…
#>  4 Adelie  Torgersen           36.7          19.3              193    3450 fema…
#>  5 Adelie  Torgersen           39.3          20.6              190    3650 male 
#>  6 Adelie  Torgersen           38.9          17.8              181    3625 fema…
#>  7 Adelie  Torgersen           39.2          19.6              195    4675 male 
#>  8 Adelie  Torgersen           41.1          17.6              182    3200 fema…
#>  9 Adelie  Torgersen           38.6          21.2              191    3800 male 
#> 10 Adelie  Torgersen           34.6          21.1              198    4400 male 
#> # … with 323 more rows, and abbreviated variable names ¹​flipper_length_mm,
#> #   ²​body_mass_g
…
